{
    "微服务的模式语言.md": {
        "title": "微服务的模式语言-0-核心及细节索引(Pattern language)",
        "date": "2019-10-08 08:47:11",
        "tags": [
            "微服务",
            "翻译",
            "编程思想"
        ],
        "categories": [
            "微服务"
        ],
        "cover": "/微服务/i/DecomposingApplications.011.jpg",
        "created": "2019-09-23 07:37:12",
        "updated": "2019-10-08 08:47:11"
    },
    "微服务的模式语言-3-服务治理.md": {
        "title": "微服务的模式语言-3-服务治理",
        "date": "2019-10-09 03:21:13",
        "tags": [
            "微服务",
            "翻译",
            "编程思想"
        ],
        "categories": [
            "微服务"
        ],
        "cover": "/微服务/i/服务发现.jpg",
        "created": "2019-10-08 08:39:31",
        "updated": "2019-10-09 03:21:13"
    },
    "Pattern Decompose by business capability.md": {
        "title": "模式：根据业务能力拆分",
        "date": "2019-10-08 08:07:40",
        "tags": [
            "翻译",
            "微服务",
            "编程思想"
        ],
        "categories": [
            "微服务"
        ],
        "cover": "/微服务/i/successtriangle.png",
        "created": "2019-09-23 07:37:12",
        "updated": "2019-10-08 08:07:40"
    },
    "微服务的模式语言-2-通信模式.md": {
        "title": "微服务的模式语言-2-通讯模式（Communication patterns）",
        "date": "2019-10-09 02:28:26",
        "tags": [
            "微服务",
            "翻译",
            "编程思想"
        ],
        "categories": [
            "微服务"
        ],
        "cover": "/微服务/i/点对点消息队列.png",
        "created": "2019-10-08 08:39:31",
        "updated": "2019-10-09 02:28:26"
    },
    "微服务的模式语言-4-数据和安全.md": {
        "title": "微服务的模式语言-4-数据和安全",
        "date": "2019-10-08 08:39:31",
        "tags": [
            "微服务",
            "翻译",
            "编程思想"
        ],
        "categories": [
            "微服务"
        ],
        "created": "2019-10-08 08:39:31",
        "updated": "2019-10-08 08:39:31"
    },
    "微服务的模式语言-1-服务拆分、部署与框架.md": {
        "title": "微服务的模式语言-1-服务拆分、部署与框架",
        "date": "2019-10-09 02:28:26",
        "tags": [
            "微服务",
            "翻译",
            "编程思想"
        ],
        "categories": [
            "微服务"
        ],
        "cover": "/微服务/i/微服务框架.png",
        "created": "2019-10-08 08:07:40",
        "updated": "2019-10-09 02:28:26"
    },
    "ServiceMesh原理.md": {
        "title": "Service Mesh 服务网格——原理",
        "date": "2019-11-21 05:43:22",
        "tags": [
            "微服务",
            "Service Mesh",
            "编程思想",
            "原理",
            "设计思路"
        ],
        "categories": [
            "微服务"
        ],
        "cover": "/微服务/i/serivce-mesh-control-plane.png",
        "created": "2019-11-17 14:37:46",
        "updated": "2019-11-21 05:43:22"
    },
    "ServiceMesh历史.md": {
        "title": "Service Mesh 服务网格——从何而来",
        "date": "2019-11-17 12:53:26",
        "tags": [
            "微服务",
            "Service Mesh",
            "编程思想",
            "历史"
        ],
        "categories": [
            "微服务"
        ],
        "cover": "/微服务/i/ServiceMesh0.jpg",
        "created": "2019-11-16 13:25:37",
        "updated": "2019-11-17 12:53:26"
    }
}