{
    "GitCommit删除文件.md": {
        "title": "【纯转载】从 git commit 中永久删除某个文件",
        "created": "2021-03-15 14:21:07",
        "updated": "2021-03-15 14:21:07",
        "date": "2021-03-15 14:21:07",
        "tags": [
            "编程语言",
            "Git",
            "实操"
        ],
        "categories": [
            "编程语言",
            "Git"
        ]
    },
    "Git合并Commit.md": {
        "title": "【转载】Commit的合并与修改——rebase变基指令",
        "created": "2023-09-12 23:11:04",
        "updated": "2024-05-26 07:15:08",
        "date": "2024-05-26 07:15:08",
        "tags": [
            "编程语言",
            "Git"
        ],
        "categories": [
            "编程语言",
            "Git"
        ],
        "cover": "/编程语言/Git/i/77f90f3ccf7c467a816b7fa8973317c7.png"
    }
}