{
    "ion-sfu-qa.md": {
        "title": "`pion/ion-sfu`Q&A",
        "created": "2022-04-27 10:52:21",
        "updated": "2022-05-10 13:48:13",
        "date": "2022-05-10 13:48:13",
        "tags": [
            "WebRTC",
            "编程框架",
            "pion",
            "实操"
        ],
        "categories": [
            "WebRTC"
        ]
    },
    "play-from-disk.md": {
        "title": "用实例学习pion - [`play-from-disk`](https://github.com/pion/webrtc/blob/master/examples/play-from-disk/main.go)",
        "created": "2021-09-02 13:34:22",
        "updated": "2021-09-02 13:34:22",
        "date": "2021-09-02 13:34:22",
        "tags": [
            "WebRTC",
            "编程框架",
            "pion",
            "实操"
        ],
        "categories": [
            "WebRTC"
        ]
    },
    "pion-to-pion.md": {
        "title": "用实例学习pion - [`pion-to-pion`](https://github.com/pion/webrtc/blob/master/examples/pion-to-pion/main.go)",
        "created": "2021-09-09 10:59:06",
        "updated": "2021-09-09 10:59:06",
        "date": "2021-09-09 10:59:06",
        "tags": [
            "WebRTC",
            "编程框架",
            "pion",
            "实操"
        ],
        "categories": [
            "WebRTC"
        ]
    },
    "Simulcast.md": {
        "title": "拓展知识：同播(Simulcast)",
        "created": "2021-10-13 13:28:10",
        "updated": "2021-10-13 13:28:10",
        "date": "2021-10-13 13:28:10",
        "tags": [
            "WebRTC",
            "概念"
        ],
        "categories": [
            "WebRTC"
        ]
    },
    "ion-islb.md": {
        "title": "ION中的islb服务",
        "created": "2022-04-13 11:56:10",
        "updated": "2022-04-13 12:35:33",
        "date": "2022-04-13 12:35:33",
        "tags": [
            "WebRTC",
            "编程框架",
            "pion",
            "实操"
        ],
        "categories": [
            "WebRTC"
        ],
        "cover": "/WebRTC/./i/NewRegistry.png"
    },
    "ion-signal.md": {
        "title": "ION中的Signal服务",
        "created": "2022-04-15 10:57:33",
        "updated": "2022-04-15 10:57:33",
        "date": "2022-04-15 10:57:33",
        "tags": [
            "WebRTC",
            "编程框架",
            "pion",
            "实操"
        ],
        "categories": [
            "WebRTC"
        ]
    },
    "gocv-receive.md": {
        "title": "用实例学习pion - [`gocv-receive`](https://github.com/yindaheng98/example-webrtc-applications/blob/master/gocv-receive/main.go)",
        "created": "2021-08-31 02:57:46",
        "updated": "2021-08-31 02:57:46",
        "date": "2021-08-31 02:57:46",
        "tags": [
            "WebRTC",
            "编程框架",
            "pion",
            "实操"
        ],
        "categories": [
            "WebRTC"
        ]
    },
    "rtp-to-webrtc.md": {
        "title": "用实例学习pion - [`rtp-to-webrtc`](https://github.com/pion/webrtc/blob/master/examples/rtp-to-webrtc/main.go)",
        "created": "2021-09-02 08:36:48",
        "updated": "2021-09-17 08:11:49",
        "date": "2021-09-17 08:11:49",
        "tags": [
            "WebRTC",
            "编程框架",
            "pion",
            "实操"
        ],
        "categories": [
            "WebRTC"
        ]
    },
    "interceptor在tracklocal里.md": {
        "title": "interceptor寻踪：从`TrackLocal`开始深入挖掘`pion/interceptor`的用法",
        "created": "2021-10-08 08:28:09",
        "updated": "2021-10-08 11:57:52",
        "date": "2021-10-08 11:57:52",
        "tags": [
            "WebRTC",
            "编程框架",
            "pion",
            "概念"
        ],
        "categories": [
            "WebRTC"
        ],
        "cover": "/WebRTC/./i/startRTPSenders.png"
    },
    "interceptor在pc里.md": {
        "title": "interceptor寻踪：`pion/interceptor`在`pion/webrtc`里的用法解析",
        "created": "2021-09-21 03:23:37",
        "updated": "2021-10-09 11:34:07",
        "date": "2021-10-09 11:34:07",
        "tags": [
            "WebRTC",
            "编程框架",
            "pion",
            "概念"
        ],
        "categories": [
            "WebRTC"
        ]
    },
    "sfu-in-ion.md": {
        "title": "ION中的SFU服务",
        "created": "2022-04-13 14:48:00",
        "updated": "2022-04-27 10:52:21",
        "date": "2022-04-27 10:52:21",
        "tags": [
            "WebRTC",
            "编程框架",
            "pion",
            "实操"
        ],
        "categories": [
            "WebRTC"
        ],
        "cover": "/WebRTC/i/JoinConfig.png"
    },
    "计划.md": {
        "title": "（旧）WebRTC开发计划",
        "created": "2023-09-13 03:40:58",
        "updated": "2023-09-13 03:40:58",
        "date": "2023-09-13 03:40:58",
        "tags": [
            "WebRTC",
            "Idea"
        ],
        "categories": [
            "WebRTC"
        ]
    },
    "系统实现.md": {
        "title": "（旧）系统实现",
        "created": "2023-09-13 03:40:58",
        "updated": "2023-09-13 03:40:58",
        "date": "2023-09-13 03:40:58",
        "tags": [
            "WebRTC",
            "Idea"
        ],
        "categories": [
            "WebRTC"
        ]
    },
    "STUN和ICE和SDP.md": {
        "title": "从一张图开始理解WebRTC中的STUN、SDP和ICE过程",
        "created": "2021-09-09 06:44:15",
        "updated": "2021-09-09 10:59:06",
        "date": "2021-09-09 10:59:06",
        "tags": [
            "WebRTC",
            "设计思路",
            "编程框架",
            "pion",
            "概念"
        ],
        "categories": [
            "WebRTC"
        ],
        "cover": "/WebRTC/./i/OfferAnswer.png"
    },
    "ion-sfu.md": {
        "title": "pion/ion-sfu简要学习",
        "created": "2021-10-13 13:15:32",
        "updated": "2022-08-01 08:25:54",
        "date": "2022-08-01 08:25:54",
        "tags": [
            "WebRTC",
            "编程框架",
            "pion",
            "概念"
        ],
        "categories": [
            "WebRTC"
        ],
        "cover": "/WebRTC/i/sfu.png"
    },
    "interceptor总结.md": {
        "title": "interceptor寻踪：总结",
        "created": "2021-10-09 11:34:07",
        "updated": "2021-10-09 11:34:07",
        "date": "2021-10-09 11:34:07",
        "tags": [
            "WebRTC",
            "编程框架",
            "pion",
            "概念"
        ],
        "categories": [
            "WebRTC"
        ]
    },
    "TrackLocal.md": {
        "title": "pion中的`TrackLocal`",
        "created": "2021-09-02 12:43:51",
        "updated": "2021-09-21 02:44:32",
        "date": "2021-09-21 02:44:32",
        "tags": [
            "WebRTC",
            "设计思路",
            "编程框架",
            "pion",
            "实操"
        ],
        "categories": [
            "WebRTC"
        ]
    },
    "错误恢复.md": {
        "title": "WebRTC 视频通信中的错误恢复机制",
        "created": "2021-08-30 14:12:38",
        "updated": "2021-08-30 14:28:50",
        "date": "2021-08-30 14:28:50",
        "tags": [
            "WebRTC",
            "设计思路"
        ],
        "categories": [
            "WebRTC"
        ],
        "cover": "/WebRTC/i/error.webp"
    },
    "GCC.md": {
        "title": "【转载】GCC 拥塞控制算法",
        "created": "2021-09-16 06:44:49",
        "updated": "2021-09-16 06:44:49",
        "date": "2021-09-16 06:44:49",
        "tags": [
            "WebRTC",
            "概念"
        ],
        "categories": [
            "WebRTC"
        ],
        "cover": "/WebRTC/./i/16002707293607.png"
    },
    "pion-interceptor.md": {
        "title": "[pion/interceptor](https://github.com/pion/interceptor)浅析",
        "created": "2021-09-10 12:33:05",
        "updated": "2021-09-27 13:16:48",
        "date": "2021-09-27 13:16:48",
        "tags": [
            "WebRTC",
            "编程框架",
            "pion",
            "概念"
        ],
        "categories": [
            "WebRTC"
        ]
    },
    "传出总结.md": {
        "title": "pion学习总结：等待传出track的一般流程",
        "created": "2021-09-02 14:20:33",
        "updated": "2021-09-02 14:20:33",
        "date": "2021-09-02 14:20:33",
        "tags": [
            "WebRTC",
            "编程框架",
            "pion",
            "实操"
        ],
        "categories": [
            "WebRTC"
        ]
    },
    "TrackRemote.md": {
        "title": "pion中的`TrackRemote`",
        "created": "2021-09-02 13:09:24",
        "updated": "2021-09-21 03:13:45",
        "date": "2021-09-21 03:13:45",
        "tags": [
            "WebRTC",
            "设计思路",
            "编程框架",
            "pion",
            "实操"
        ],
        "categories": [
            "WebRTC"
        ]
    },
    "webrtc-encoder.md": {
        "title": "WebRTC源码中的Encoder",
        "created": "2021-10-27 14:02:39",
        "updated": "2022-03-08 08:54:58",
        "date": "2022-03-08 08:54:58",
        "tags": [
            "WebRTC",
            "libvpx",
            "编程框架",
            "源码解读"
        ],
        "categories": [
            "WebRTC"
        ]
    },
    "RFC.md": {
        "title": "【转载】WebRTC 实现的 RFC 知多少",
        "created": "2021-09-14 06:30:20",
        "updated": "2021-09-14 06:31:29",
        "date": "2021-09-14 06:31:29",
        "tags": [
            "WebRTC",
            "编程框架",
            "概念"
        ],
        "categories": [
            "WebRTC"
        ]
    },
    "webrtc延迟分析.md": {
        "title": "【纯转载】webrtc延迟分析",
        "created": "2021-11-16 11:41:14",
        "updated": "2021-11-16 11:41:14",
        "date": "2021-11-16 11:41:14",
        "tags": [
            "WebRTC",
            "编程框架"
        ],
        "categories": [
            "WebRTC"
        ]
    },
    "rtp-forwarder.md": {
        "title": "用实例学习pion - [`rtp-forwarder`](https://github.com/pion/webrtc/blob/master/examples/rtp-forwarder/main.go#L24)",
        "created": "2021-08-30 14:12:38",
        "updated": "2021-09-02 13:33:33",
        "date": "2021-09-02 13:33:33",
        "tags": [
            "WebRTC",
            "编程框架",
            "pion",
            "实操"
        ],
        "categories": [
            "WebRTC"
        ]
    },
    "ion-sdk-go-example.md": {
        "title": "`ion-go-sdk`解析——从例程开始",
        "created": "2022-04-19 13:18:30",
        "updated": "2022-04-19 13:18:30",
        "date": "2022-04-19 13:18:30",
        "tags": [
            "WebRTC",
            "编程框架",
            "pion",
            "实操"
        ],
        "categories": [
            "WebRTC"
        ]
    },
    "传入总结.md": {
        "title": "pion学习总结：等待传入track的一般流程",
        "created": "2021-09-01 08:50:01",
        "updated": "2021-09-02 13:11:20",
        "date": "2021-09-02 13:11:20",
        "tags": [
            "WebRTC",
            "编程框架",
            "pion",
            "实操"
        ],
        "categories": [
            "WebRTC"
        ]
    },
    "pion-nack.md": {
        "title": "用实例学习pion interceptor - [`nack`](https://github.com/pion/interceptor/blob/master/examples/nack/main.go)",
        "created": "2021-09-10 12:33:05",
        "updated": "2021-09-27 13:27:20",
        "date": "2021-09-27 13:27:20",
        "tags": [
            "WebRTC",
            "编程框架",
            "pion",
            "实操"
        ],
        "categories": [
            "WebRTC"
        ]
    },
    "ION-Arch.md": {
        "title": "ION的基本架构",
        "created": "2022-04-09 12:33:17",
        "updated": "2022-04-15 10:57:33",
        "date": "2022-04-15 10:57:33",
        "tags": [
            "WebRTC",
            "编程框架",
            "pion",
            "概念"
        ],
        "categories": [
            "WebRTC"
        ],
        "cover": "/WebRTC/./i/ION-Arch.png"
    },
    "interceptor在trackremote里.md": {
        "title": "interceptor寻踪：从`TrackRemote`开始深入挖掘`pion/interceptor`的用法",
        "created": "2021-10-08 08:44:32",
        "updated": "2021-10-09 11:34:07",
        "date": "2021-10-09 11:34:07",
        "tags": [
            "WebRTC",
            "编程框架",
            "pion",
            "概念"
        ],
        "categories": [
            "WebRTC"
        ],
        "cover": "/WebRTC/./i/trackStreamsRTP.png"
    },
    "WebRTC调研记录.md": {
        "title": "FFmpeg硬件加速",
        "created": "2023-09-13 03:40:58",
        "updated": "2023-09-13 03:40:58",
        "date": "2023-09-13 03:40:58",
        "tags": [
            "WebRTC",
            "概念"
        ],
        "categories": [
            "WebRTC"
        ]
    }
}