{
    "前端风雨.md": {
        "title": "前端技术的十八年风雨（2006-2024）",
        "created": "2024-05-28 21:02:36",
        "updated": "2024-05-28 21:02:36",
        "date": "2024-05-28 21:02:36",
        "tags": [
            "编程语言",
            "Node"
        ],
        "categories": [
            "编程语言",
            "Node"
        ],
        "cover": "https://www.bilibili.com/video/BV1eC411p73m"
    },
    "nodejs-promise.md": {
        "title": "nodejs中的Promise对象",
        "date": "2019-12-09 12:10:32",
        "tags": [
            "Node",
            "实操",
            "框架",
            "概念",
            "编程语言"
        ],
        "categories": [
            "编程语言",
            "Node"
        ],
        "cover": "/编程语言/Node/i/nodejs_4.png",
        "created": "2019-05-10 11:28:49",
        "updated": "2019-12-09 12:10:32"
    },
    "nextjs.md": {
        "title": "【摘录】Next.js和“全栈框架”",
        "created": "2024-05-16 00:49:45",
        "updated": "2024-05-16 00:51:37",
        "date": "2024-05-16 00:51:37",
        "tags": [
            "编程语言",
            "Node",
            "编程框架",
            "前端"
        ],
        "categories": [
            "编程语言",
            "Node"
        ],
        "cover": "/编程语言/Node/i/nextjs.png"
    },
    "nodejs-express.md": {
        "title": "nodejs-express",
        "date": "2019-04-27 06:18:40",
        "tags": [
            "Node",
            "编程框架",
            "实操",
            "编程语言"
        ],
        "categories": [
            "编程语言",
            "Node"
        ],
        "created": "2019-04-27 06:18:40",
        "updated": "2019-04-27 06:18:40"
    },
    "nodejs-class.md": {
        "title": "nodejs模块化（类和对象）",
        "date": "2019-04-27 06:18:40",
        "tags": [
            "Node",
            "面向对象",
            "编程语言"
        ],
        "categories": [
            "编程语言",
            "Node"
        ],
        "created": "2019-04-27 06:18:40",
        "updated": "2019-04-27 06:18:40"
    },
    "SSR.md": {
        "title": "【摘录】前后端分离多年，为何服务端渲染重回风口浪尖？",
        "created": "2024-05-15 23:24:45",
        "updated": "2024-05-15 23:24:45",
        "date": "2024-05-15 23:24:45",
        "tags": [
            "编程语言",
            "Node",
            "前端",
            "编程框架"
        ],
        "categories": [
            "编程语言",
            "Node"
        ]
    },
    "nodejs-tips.md": {
        "title": "nodejs补充知识",
        "date": "2019-11-29 01:30:25",
        "tags": [
            "Node",
            "实操",
            "编程语言"
        ],
        "categories": [
            "编程语言",
            "Node"
        ],
        "created": "2019-11-29 01:30:25",
        "updated": "2019-11-29 01:30:25"
    },
    "nodejs-install.md": {
        "title": "Nodejs学习",
        "date": "2019-04-27 06:18:40",
        "tags": [
            "Node",
            "实操",
            "概念",
            "编程语言"
        ],
        "categories": [
            "编程语言",
            "Node"
        ],
        "created": "2019-04-27 06:18:40",
        "updated": "2019-04-27 06:18:40"
    },
    "nodejs-feature.md": {
        "title": "nodejs重要特性",
        "date": "2019-12-06 15:24:37",
        "tags": [
            "Node",
            "实操",
            "框架",
            "编程语言"
        ],
        "categories": [
            "编程语言",
            "Node"
        ],
        "cover": "/编程语言/Node/i/nodejs_1.jpg",
        "created": "2019-04-27 06:18:40",
        "updated": "2019-12-06 15:24:37"
    },
    "wasm.md": {
        "title": "【转载】为什么说 WASM 是 Web 的未来？",
        "created": "2023-04-07 13:17:30",
        "updated": "2023-04-07 13:32:32",
        "date": "2023-04-07 13:32:32",
        "tags": [
            "编程语言",
            "Node"
        ],
        "categories": [
            "编程语言",
            "Node"
        ],
        "cover": "/编程语言/Node/wasm/22b7e25948d3e023af5ffb805d0d429c.png"
    }
}