{
    "形式语言定义.md": {
        "title": "形式语言定义",
        "created": "2020-10-24 14:55:50",
        "updated": "2020-11-07 13:20:43",
        "date": "2020-11-07 13:20:43",
        "tags": [
            "数学",
            "形式语言与自动机",
            "形式语言",
            "计算理论"
        ],
        "categories": [
            "数学",
            "形式语言与自动机"
        ]
    },
    "图灵机.md": {
        "title": "图灵机",
        "created": "2020-10-25 15:10:06",
        "updated": "2020-12-25 16:01:50",
        "date": "2020-12-25 16:01:50",
        "tags": [
            "数学",
            "形式语言与自动机",
            "计算理论",
            "自动机"
        ],
        "categories": [
            "数学",
            "形式语言与自动机"
        ],
        "cover": "/数学/形式语言与自动机/./i/ML.jpg"
    },
    "下推自动机.md": {
        "title": "下推自动机",
        "created": "2020-12-18 02:35:29",
        "updated": "2020-12-18 02:35:29",
        "date": "2020-12-18 02:35:29",
        "tags": [
            "数学",
            "形式语言与自动机",
            "计算理论",
            "形式语言",
            "上下文无关语言",
            "上下文无关文法",
            "下推自动机"
        ],
        "categories": [
            "数学",
            "形式语言与自动机"
        ],
        "cover": "/数学/形式语言与自动机/./i/PDA.png"
    },
    "语法分析树.md": {
        "title": "语法分析树/派生树",
        "created": "2020-11-15 15:50:50",
        "updated": "2020-12-14 07:37:56",
        "date": "2020-12-14 07:37:56",
        "tags": [
            "数学",
            "形式语言与自动机",
            "计算理论",
            "形式语言",
            "上下文无关语言",
            "上下文无关文法",
            "下推自动机"
        ],
        "categories": [
            "数学",
            "形式语言与自动机"
        ]
    },
    "正则表达式.md": {
        "title": "正则表达式",
        "created": "2020-11-07 16:09:31",
        "updated": "2020-12-23 07:54:35",
        "date": "2020-12-23 07:54:35",
        "tags": [
            "数学",
            "形式语言与自动机",
            "计算理论",
            "正则表达式"
        ],
        "categories": [
            "数学",
            "形式语言与自动机"
        ]
    },
    "上下文无关文法.md": {
        "title": "上下文无关文法和上下文无关语言",
        "created": "2020-11-15 09:31:56",
        "updated": "2020-12-18 02:35:29",
        "date": "2020-12-18 02:35:29",
        "tags": [
            "数学",
            "形式语言与自动机",
            "形式语言",
            "计算理论",
            "上下文无关语言",
            "上下文无关文法",
            "下推自动机"
        ],
        "categories": [
            "数学",
            "形式语言与自动机"
        ]
    },
    "有穷自动机.md": {
        "title": "有穷自动机(Finite Automation, FA)/有限状态机(Finite State Machine, FSM)",
        "created": "2020-10-25 08:51:14",
        "updated": "2020-11-08 15:22:30",
        "date": "2020-11-08 15:22:30",
        "tags": [
            "数学",
            "形式语言与自动机",
            "自动机",
            "计算理论"
        ],
        "categories": [
            "数学",
            "形式语言与自动机"
        ]
    },
    "正则语言.md": {
        "title": "正则语言",
        "created": "2020-11-08 16:16:48",
        "updated": "2020-11-15 09:31:56",
        "date": "2020-11-15 09:31:56",
        "tags": [
            "数学",
            "形式语言与自动机",
            "计算理论",
            "正则表达式"
        ],
        "categories": [
            "数学",
            "形式语言与自动机"
        ]
    }
}