{
    "async-with.md": {
        "title": "并不是从零开始的Python协程学习-上下文管理器",
        "created": "2021-08-16 08:20:59",
        "updated": "2021-08-16 08:20:59",
        "date": "2021-08-16 08:20:59",
        "tags": [
            "编程语言",
            "Python"
        ],
        "categories": [
            "编程语言",
            "Python"
        ]
    },
    "Python包导入问题.md": {
        "title": "Python包导入问题",
        "created": "2020-11-01 15:55:20",
        "updated": "2020-11-01 15:55:20",
        "date": "2020-11-01 15:55:20",
        "tags": [
            "编程语言",
            "Python",
            "实操"
        ],
        "categories": [
            "编程语言",
            "Python"
        ]
    },
    "async-yeild.md": {
        "title": "并不是从零开始的Python协程学习-生成器",
        "created": "2021-08-17 09:26:23",
        "updated": "2021-08-18 07:41:07",
        "date": "2021-08-18 07:41:07",
        "tags": [
            "编程语言",
            "Python"
        ],
        "categories": [
            "编程语言",
            "Python"
        ]
    },
    "structure-guide.md": {
        "title": "【纯转载】Python工程结构",
        "created": "2021-03-14 15:38:17",
        "updated": "2021-03-14 15:38:17",
        "date": "2021-03-14 15:38:17",
        "tags": [
            "编程语言",
            "Python"
        ],
        "categories": [
            "编程语言",
            "Python"
        ]
    },
    "async-await.md": {
        "title": "并不是从零开始的Python协程学习-如何运行协程",
        "created": "2021-08-18 07:41:07",
        "updated": "2021-08-18 07:41:07",
        "date": "2021-08-18 07:41:07",
        "tags": [
            "编程语言",
            "Python"
        ],
        "categories": [
            "编程语言",
            "Python"
        ]
    }
}